^E:\PROGRAMS\COCOS2D\ALPHA_VER005\CLASSES\ACT.CPP
/c /I. /I..\Classes /IE:\programs\cocos2d\cocos2dx /IE:\programs\cocos2d\cocos2dx\include /IE:\programs\cocos2d\cocos2dx\kazmath\include /IE:\programs\cocos2d\cocos2dx\platform\win32 /IE:\programs\cocos2d\cocos2dx\platform\third_party\win32 /IE:\programs\cocos2d\cocos2dx\platform\third_party\win32\OGLES /IE:\programs\cocos2d\external /IE:\programs\cocos2d\CocosDenshion\include /ZI /nologo /W4 /WX- /Od /Oy- /D WIN32 /D _WINDOWS /D STRICT /D _CRT_SECURE_NO_WARNINGS /D _SCL_SECURE_NO_WARNINGS_DEBUG /D COCOS2D_DEBUG=1 /D _UNICODE /D UNICODE /Gm /EHsc /RTC1 /MDd /GS /fp:precise /Zc:wchar_t /Zc:forScope /Fo"DEBUG.WIN32\\" /Fd"DEBUG.WIN32\VC110.PDB" /Gd /TP /wd4267 /wd4251 /wd4244 /analyze- E:\PROGRAMS\COCOS2D\ALPHA_VER005\CLASSES\ACT.CPP
^E:\PROGRAMS\COCOS2D\ALPHA_VER005\CLASSES\ACTOR.CPP
/c /I. /I..\Classes /IE:\programs\cocos2d\cocos2dx /IE:\programs\cocos2d\cocos2dx\include /IE:\programs\cocos2d\cocos2dx\kazmath\include /IE:\programs\cocos2d\cocos2dx\platform\win32 /IE:\programs\cocos2d\cocos2dx\platform\third_party\win32 /IE:\programs\cocos2d\cocos2dx\platform\third_party\win32\OGLES /IE:\programs\cocos2d\external /IE:\programs\cocos2d\CocosDenshion\include /ZI /nologo /W4 /WX- /Od /Oy- /D WIN32 /D _WINDOWS /D STRICT /D _CRT_SECURE_NO_WARNINGS /D _SCL_SECURE_NO_WARNINGS_DEBUG /D COCOS2D_DEBUG=1 /D _UNICODE /D UNICODE /Gm /EHsc /RTC1 /MDd /GS /fp:precise /Zc:wchar_t /Zc:forScope /Fo"DEBUG.WIN32\\" /Fd"DEBUG.WIN32\VC110.PDB" /Gd /TP /wd4267 /wd4251 /wd4244 /analyze- E:\PROGRAMS\COCOS2D\ALPHA_VER005\CLASSES\ACTOR.CPP
^E:\PROGRAMS\COCOS2D\ALPHA_VER005\CLASSES\APPDELEGATE.CPP
/c /I. /I..\Classes /IE:\programs\cocos2d\cocos2dx /IE:\programs\cocos2d\cocos2dx\include /IE:\programs\cocos2d\cocos2dx\kazmath\include /IE:\programs\cocos2d\cocos2dx\platform\win32 /IE:\programs\cocos2d\cocos2dx\platform\third_party\win32 /IE:\programs\cocos2d\cocos2dx\platform\third_party\win32\OGLES /IE:\programs\cocos2d\external /IE:\programs\cocos2d\CocosDenshion\include /ZI /nologo /W4 /WX- /Od /Oy- /D WIN32 /D _WINDOWS /D STRICT /D _CRT_SECURE_NO_WARNINGS /D _SCL_SECURE_NO_WARNINGS_DEBUG /D COCOS2D_DEBUG=1 /D _UNICODE /D UNICODE /Gm /EHsc /RTC1 /MDd /GS /fp:precise /Zc:wchar_t /Zc:forScope /Fo"DEBUG.WIN32\\" /Fd"DEBUG.WIN32\VC110.PDB" /Gd /TP /wd4267 /wd4251 /wd4244 /analyze- E:\PROGRAMS\COCOS2D\ALPHA_VER005\CLASSES\APPDELEGATE.CPP
^E:\PROGRAMS\COCOS2D\ALPHA_VER005\CLASSES\DRAWADVANCEDAREA.CPP
/c /I. /I..\Classes /IE:\programs\cocos2d\cocos2dx /IE:\programs\cocos2d\cocos2dx\include /IE:\programs\cocos2d\cocos2dx\kazmath\include /IE:\programs\cocos2d\cocos2dx\platform\win32 /IE:\programs\cocos2d\cocos2dx\platform\third_party\win32 /IE:\programs\cocos2d\cocos2dx\platform\third_party\win32\OGLES /IE:\programs\cocos2d\external /IE:\programs\cocos2d\CocosDenshion\include /ZI /nologo /W4 /WX- /Od /Oy- /D WIN32 /D _WINDOWS /D STRICT /D _CRT_SECURE_NO_WARNINGS /D _SCL_SECURE_NO_WARNINGS_DEBUG /D COCOS2D_DEBUG=1 /D _UNICODE /D UNICODE /Gm /EHsc /RTC1 /MDd /GS /fp:precise /Zc:wchar_t /Zc:forScope /Fo"DEBUG.WIN32\\" /Fd"DEBUG.WIN32\VC110.PDB" /Gd /TP /wd4267 /wd4251 /wd4244 /analyze- E:\PROGRAMS\COCOS2D\ALPHA_VER005\CLASSES\DRAWADVANCEDAREA.CPP
^E:\PROGRAMS\COCOS2D\ALPHA_VER005\CLASSES\DRAWAREA.CPP
/c /I. /I..\Classes /IE:\programs\cocos2d\cocos2dx /IE:\programs\cocos2d\cocos2dx\include /IE:\programs\cocos2d\cocos2dx\kazmath\include /IE:\programs\cocos2d\cocos2dx\platform\win32 /IE:\programs\cocos2d\cocos2dx\platform\third_party\win32 /IE:\programs\cocos2d\cocos2dx\platform\third_party\win32\OGLES /IE:\programs\cocos2d\external /IE:\programs\cocos2d\CocosDenshion\include /ZI /nologo /W4 /WX- /Od /Oy- /D WIN32 /D _WINDOWS /D STRICT /D _CRT_SECURE_NO_WARNINGS /D _SCL_SECURE_NO_WARNINGS_DEBUG /D COCOS2D_DEBUG=1 /D _UNICODE /D UNICODE /Gm /EHsc /RTC1 /MDd /GS /fp:precise /Zc:wchar_t /Zc:forScope /Fo"DEBUG.WIN32\\" /Fd"DEBUG.WIN32\VC110.PDB" /Gd /TP /wd4267 /wd4251 /wd4244 /analyze- E:\PROGRAMS\COCOS2D\ALPHA_VER005\CLASSES\DRAWAREA.CPP
^E:\PROGRAMS\COCOS2D\ALPHA_VER005\CLASSES\GRIDMAP.CPP
/c /I. /I..\Classes /IE:\programs\cocos2d\cocos2dx /IE:\programs\cocos2d\cocos2dx\include /IE:\programs\cocos2d\cocos2dx\kazmath\include /IE:\programs\cocos2d\cocos2dx\platform\win32 /IE:\programs\cocos2d\cocos2dx\platform\third_party\win32 /IE:\programs\cocos2d\cocos2dx\platform\third_party\win32\OGLES /IE:\programs\cocos2d\external /IE:\programs\cocos2d\CocosDenshion\include /ZI /nologo /W4 /WX- /Od /Oy- /D WIN32 /D _WINDOWS /D STRICT /D _CRT_SECURE_NO_WARNINGS /D _SCL_SECURE_NO_WARNINGS_DEBUG /D COCOS2D_DEBUG=1 /D _UNICODE /D UNICODE /Gm /EHsc /RTC1 /MDd /GS /fp:precise /Zc:wchar_t /Zc:forScope /Fo"DEBUG.WIN32\\" /Fd"DEBUG.WIN32\VC110.PDB" /Gd /TP /wd4267 /wd4251 /wd4244 /analyze- E:\PROGRAMS\COCOS2D\ALPHA_VER005\CLASSES\GRIDMAP.CPP
^E:\PROGRAMS\COCOS2D\ALPHA_VER005\CLASSES\MENU.CPP
/c /I. /I..\Classes /IE:\programs\cocos2d\cocos2dx /IE:\programs\cocos2d\cocos2dx\include /IE:\programs\cocos2d\cocos2dx\kazmath\include /IE:\programs\cocos2d\cocos2dx\platform\win32 /IE:\programs\cocos2d\cocos2dx\platform\third_party\win32 /IE:\programs\cocos2d\cocos2dx\platform\third_party\win32\OGLES /IE:\programs\cocos2d\external /IE:\programs\cocos2d\CocosDenshion\include /ZI /nologo /W4 /WX- /Od /Oy- /D WIN32 /D _WINDOWS /D STRICT /D _CRT_SECURE_NO_WARNINGS /D _SCL_SECURE_NO_WARNINGS_DEBUG /D COCOS2D_DEBUG=1 /D _UNICODE /D UNICODE /Gm /EHsc /RTC1 /MDd /GS /fp:precise /Zc:wchar_t /Zc:forScope /Fo"DEBUG.WIN32\\" /Fd"DEBUG.WIN32\VC110.PDB" /Gd /TP /wd4267 /wd4251 /wd4244 /analyze- E:\PROGRAMS\COCOS2D\ALPHA_VER005\CLASSES\MENU.CPP
^E:\PROGRAMS\COCOS2D\ALPHA_VER005\CLASSES\PLAYER.CPP
/c /I. /I..\Classes /IE:\programs\cocos2d\cocos2dx /IE:\programs\cocos2d\cocos2dx\include /IE:\programs\cocos2d\cocos2dx\kazmath\include /IE:\programs\cocos2d\cocos2dx\platform\win32 /IE:\programs\cocos2d\cocos2dx\platform\third_party\win32 /IE:\programs\cocos2d\cocos2dx\platform\third_party\win32\OGLES /IE:\programs\cocos2d\external /IE:\programs\cocos2d\CocosDenshion\include /ZI /nologo /W4 /WX- /Od /Oy- /D WIN32 /D _WINDOWS /D STRICT /D _CRT_SECURE_NO_WARNINGS /D _SCL_SECURE_NO_WARNINGS_DEBUG /D COCOS2D_DEBUG=1 /D _UNICODE /D UNICODE /Gm /EHsc /RTC1 /MDd /GS /fp:precise /Zc:wchar_t /Zc:forScope /Fo"DEBUG.WIN32\\" /Fd"DEBUG.WIN32\VC110.PDB" /Gd /TP /wd4267 /wd4251 /wd4244 /analyze- E:\PROGRAMS\COCOS2D\ALPHA_VER005\CLASSES\PLAYER.CPP
^E:\PROGRAMS\COCOS2D\ALPHA_VER005\CLASSES\TURNCOUNT.CPP
/c /I. /I..\Classes /IE:\programs\cocos2d\cocos2dx /IE:\programs\cocos2d\cocos2dx\include /IE:\programs\cocos2d\cocos2dx\kazmath\include /IE:\programs\cocos2d\cocos2dx\platform\win32 /IE:\programs\cocos2d\cocos2dx\platform\third_party\win32 /IE:\programs\cocos2d\cocos2dx\platform\third_party\win32\OGLES /IE:\programs\cocos2d\external /IE:\programs\cocos2d\CocosDenshion\include /ZI /nologo /W4 /WX- /Od /Oy- /D WIN32 /D _WINDOWS /D STRICT /D _CRT_SECURE_NO_WARNINGS /D _SCL_SECURE_NO_WARNINGS_DEBUG /D COCOS2D_DEBUG=1 /D _UNICODE /D UNICODE /Gm /EHsc /RTC1 /MDd /GS /fp:precise /Zc:wchar_t /Zc:forScope /Fo"DEBUG.WIN32\\" /Fd"DEBUG.WIN32\VC110.PDB" /Gd /TP /wd4267 /wd4251 /wd4244 /analyze- E:\PROGRAMS\COCOS2D\ALPHA_VER005\CLASSES\TURNCOUNT.CPP
^E:\PROGRAMS\COCOS2D\ALPHA_VER005\CLASSES\DRAWGRIDS.CPP
/c /I. /I..\Classes /IE:\programs\cocos2d\cocos2dx /IE:\programs\cocos2d\cocos2dx\include /IE:\programs\cocos2d\cocos2dx\kazmath\include /IE:\programs\cocos2d\cocos2dx\platform\win32 /IE:\programs\cocos2d\cocos2dx\platform\third_party\win32 /IE:\programs\cocos2d\cocos2dx\platform\third_party\win32\OGLES /IE:\programs\cocos2d\external /IE:\programs\cocos2d\CocosDenshion\include /ZI /nologo /W4 /WX- /Od /Oy- /D WIN32 /D _WINDOWS /D STRICT /D _CRT_SECURE_NO_WARNINGS /D _SCL_SECURE_NO_WARNINGS_DEBUG /D COCOS2D_DEBUG=1 /D _UNICODE /D UNICODE /Gm /EHsc /RTC1 /MDd /GS /fp:precise /Zc:wchar_t /Zc:forScope /Fo"DEBUG.WIN32\\" /Fd"DEBUG.WIN32\VC110.PDB" /Gd /TP /wd4267 /wd4251 /wd4244 /analyze- E:\PROGRAMS\COCOS2D\ALPHA_VER005\CLASSES\DRAWGRIDS.CPP
^E:\PROGRAMS\COCOS2D\ALPHA_VER005\CLASSES\MENUSCENE.CPP
/c /I. /I..\Classes /IE:\programs\cocos2d\cocos2dx /IE:\programs\cocos2d\cocos2dx\include /IE:\programs\cocos2d\cocos2dx\kazmath\include /IE:\programs\cocos2d\cocos2dx\platform\win32 /IE:\programs\cocos2d\cocos2dx\platform\third_party\win32 /IE:\programs\cocos2d\cocos2dx\platform\third_party\win32\OGLES /IE:\programs\cocos2d\external /IE:\programs\cocos2d\CocosDenshion\include /ZI /nologo /W4 /WX- /Od /Oy- /D WIN32 /D _WINDOWS /D STRICT /D _CRT_SECURE_NO_WARNINGS /D _SCL_SECURE_NO_WARNINGS_DEBUG /D COCOS2D_DEBUG=1 /D _UNICODE /D UNICODE /Gm /EHsc /RTC1 /MDd /GS /fp:precise /Zc:wchar_t /Zc:forScope /Fo"DEBUG.WIN32\\" /Fd"DEBUG.WIN32\VC110.PDB" /Gd /TP /wd4267 /wd4251 /wd4244 /analyze- E:\PROGRAMS\COCOS2D\ALPHA_VER005\CLASSES\MENUSCENE.CPP
^E:\PROGRAMS\COCOS2D\ALPHA_VER005\CLASSES\PLAYINGSCENE.CPP
/c /I. /I..\Classes /IE:\programs\cocos2d\cocos2dx /IE:\programs\cocos2d\cocos2dx\include /IE:\programs\cocos2d\cocos2dx\kazmath\include /IE:\programs\cocos2d\cocos2dx\platform\win32 /IE:\programs\cocos2d\cocos2dx\platform\third_party\win32 /IE:\programs\cocos2d\cocos2dx\platform\third_party\win32\OGLES /IE:\programs\cocos2d\external /IE:\programs\cocos2d\CocosDenshion\include /ZI /nologo /W4 /WX- /Od /Oy- /D WIN32 /D _WINDOWS /D STRICT /D _CRT_SECURE_NO_WARNINGS /D _SCL_SECURE_NO_WARNINGS_DEBUG /D COCOS2D_DEBUG=1 /D _UNICODE /D UNICODE /Gm /EHsc /RTC1 /MDd /GS /fp:precise /Zc:wchar_t /Zc:forScope /Fo"DEBUG.WIN32\\" /Fd"DEBUG.WIN32\VC110.PDB" /Gd /TP /wd4267 /wd4251 /wd4244 /analyze- E:\PROGRAMS\COCOS2D\ALPHA_VER005\CLASSES\PLAYINGSCENE.CPP
^E:\PROGRAMS\COCOS2D\ALPHA_VER005\CLASSES\STATE.CPP
/c /I. /I..\Classes /IE:\programs\cocos2d\cocos2dx /IE:\programs\cocos2d\cocos2dx\include /IE:\programs\cocos2d\cocos2dx\kazmath\include /IE:\programs\cocos2d\cocos2dx\platform\win32 /IE:\programs\cocos2d\cocos2dx\platform\third_party\win32 /IE:\programs\cocos2d\cocos2dx\platform\third_party\win32\OGLES /IE:\programs\cocos2d\external /IE:\programs\cocos2d\CocosDenshion\include /ZI /nologo /W4 /WX- /Od /Oy- /D WIN32 /D _WINDOWS /D STRICT /D _CRT_SECURE_NO_WARNINGS /D _SCL_SECURE_NO_WARNINGS_DEBUG /D COCOS2D_DEBUG=1 /D _UNICODE /D UNICODE /Gm /EHsc /RTC1 /MDd /GS /fp:precise /Zc:wchar_t /Zc:forScope /Fo"DEBUG.WIN32\\" /Fd"DEBUG.WIN32\VC110.PDB" /Gd /TP /wd4267 /wd4251 /wd4244 /analyze- E:\PROGRAMS\COCOS2D\ALPHA_VER005\CLASSES\STATE.CPP
^E:\PROGRAMS\COCOS2D\ALPHA_VER005\CLASSES\STATEMACHINE.CPP
/c /I. /I..\Classes /IE:\programs\cocos2d\cocos2dx /IE:\programs\cocos2d\cocos2dx\include /IE:\programs\cocos2d\cocos2dx\kazmath\include /IE:\programs\cocos2d\cocos2dx\platform\win32 /IE:\programs\cocos2d\cocos2dx\platform\third_party\win32 /IE:\programs\cocos2d\cocos2dx\platform\third_party\win32\OGLES /IE:\programs\cocos2d\external /IE:\programs\cocos2d\CocosDenshion\include /ZI /nologo /W4 /WX- /Od /Oy- /D WIN32 /D _WINDOWS /D STRICT /D _CRT_SECURE_NO_WARNINGS /D _SCL_SECURE_NO_WARNINGS_DEBUG /D COCOS2D_DEBUG=1 /D _UNICODE /D UNICODE /Gm /EHsc /RTC1 /MDd /GS /fp:precise /Zc:wchar_t /Zc:forScope /Fo"DEBUG.WIN32\\" /Fd"DEBUG.WIN32\VC110.PDB" /Gd /TP /wd4267 /wd4251 /wd4244 /analyze- E:\PROGRAMS\COCOS2D\ALPHA_VER005\CLASSES\STATEMACHINE.CPP
^E:\PROGRAMS\COCOS2D\ALPHA_VER005\CLASSES\UNITSELECT.CPP
/c /I. /I..\Classes /IE:\programs\cocos2d\cocos2dx /IE:\programs\cocos2d\cocos2dx\include /IE:\programs\cocos2d\cocos2dx\kazmath\include /IE:\programs\cocos2d\cocos2dx\platform\win32 /IE:\programs\cocos2d\cocos2dx\platform\third_party\win32 /IE:\programs\cocos2d\cocos2dx\platform\third_party\win32\OGLES /IE:\programs\cocos2d\external /IE:\programs\cocos2d\CocosDenshion\include /ZI /nologo /W4 /WX- /Od /Oy- /D WIN32 /D _WINDOWS /D STRICT /D _CRT_SECURE_NO_WARNINGS /D _SCL_SECURE_NO_WARNINGS_DEBUG /D COCOS2D_DEBUG=1 /D _UNICODE /D UNICODE /Gm /EHsc /RTC1 /MDd /GS /fp:precise /Zc:wchar_t /Zc:forScope /Fo"DEBUG.WIN32\\" /Fd"DEBUG.WIN32\VC110.PDB" /Gd /TP /wd4267 /wd4251 /wd4244 /analyze- E:\PROGRAMS\COCOS2D\ALPHA_VER005\CLASSES\UNITSELECT.CPP
^E:\PROGRAMS\COCOS2D\ALPHA_VER005\PROJ.WIN32\MAIN.CPP
/c /I. /I..\Classes /IE:\programs\cocos2d\cocos2dx /IE:\programs\cocos2d\cocos2dx\include /IE:\programs\cocos2d\cocos2dx\kazmath\include /IE:\programs\cocos2d\cocos2dx\platform\win32 /IE:\programs\cocos2d\cocos2dx\platform\third_party\win32 /IE:\programs\cocos2d\cocos2dx\platform\third_party\win32\OGLES /IE:\programs\cocos2d\external /IE:\programs\cocos2d\CocosDenshion\include /ZI /nologo /W4 /WX- /Od /Oy- /D WIN32 /D _WINDOWS /D STRICT /D _CRT_SECURE_NO_WARNINGS /D _SCL_SECURE_NO_WARNINGS_DEBUG /D COCOS2D_DEBUG=1 /D _UNICODE /D UNICODE /Gm /EHsc /RTC1 /MDd /GS /fp:precise /Zc:wchar_t /Zc:forScope /Fo"DEBUG.WIN32\\" /Fd"DEBUG.WIN32\VC110.PDB" /Gd /TP /wd4267 /wd4251 /wd4244 /analyze- E:\PROGRAMS\COCOS2D\ALPHA_VER005\PROJ.WIN32\MAIN.CPP
^E:\PROGRAMS\COCOS2D\ALPHA_VER005\CLASSES\SIMPLEAI.CPP
/c /I. /I..\Classes /IE:\programs\cocos2d\cocos2dx /IE:\programs\cocos2d\cocos2dx\include /IE:\programs\cocos2d\cocos2dx\kazmath\include /IE:\programs\cocos2d\cocos2dx\platform\win32 /IE:\programs\cocos2d\cocos2dx\platform\third_party\win32 /IE:\programs\cocos2d\cocos2dx\platform\third_party\win32\OGLES /IE:\programs\cocos2d\external /IE:\programs\cocos2d\CocosDenshion\include /ZI /nologo /W4 /WX- /Od /Oy- /D WIN32 /D _WINDOWS /D STRICT /D _CRT_SECURE_NO_WARNINGS /D _SCL_SECURE_NO_WARNINGS_DEBUG /D COCOS2D_DEBUG=1 /D _UNICODE /D UNICODE /Gm /EHsc /RTC1 /MDd /GS /fp:precise /Zc:wchar_t /Zc:forScope /Fo"DEBUG.WIN32\\" /Fd"DEBUG.WIN32\VC110.PDB" /Gd /TP /wd4267 /wd4251 /wd4244 /analyze- E:\PROGRAMS\COCOS2D\ALPHA_VER005\CLASSES\SIMPLEAI.CPP
^E:\PROGRAMS\COCOS2D\ALPHA_VER006\CLASSES\ACT.CPP
/c /I. /I..\Classes /IE:\programs\cocos2d\cocos2dx /IE:\programs\cocos2d\cocos2dx\include /IE:\programs\cocos2d\cocos2dx\kazmath\include /IE:\programs\cocos2d\cocos2dx\platform\win32 /IE:\programs\cocos2d\cocos2dx\platform\third_party\win32 /IE:\programs\cocos2d\cocos2dx\platform\third_party\win32\OGLES /IE:\programs\cocos2d\external /IE:\programs\cocos2d\CocosDenshion\include /ZI /nologo /W4 /WX- /Od /Oy- /D WIN32 /D _WINDOWS /D STRICT /D _CRT_SECURE_NO_WARNINGS /D _SCL_SECURE_NO_WARNINGS_DEBUG /D COCOS2D_DEBUG=1 /D _UNICODE /D UNICODE /Gm /EHsc /RTC1 /MDd /GS /fp:precise /Zc:wchar_t /Zc:forScope /Fo"DEBUG.WIN32\\" /Fd"DEBUG.WIN32\VC110.PDB" /Gd /TP /wd4267 /wd4251 /wd4244 /analyze- E:\PROGRAMS\COCOS2D\ALPHA_VER006\CLASSES\ACT.CPP
^E:\PROGRAMS\COCOS2D\ALPHA_VER006\CLASSES\ACTOR.CPP
/c /I. /I..\Classes /IE:\programs\cocos2d\cocos2dx /IE:\programs\cocos2d\cocos2dx\include /IE:\programs\cocos2d\cocos2dx\kazmath\include /IE:\programs\cocos2d\cocos2dx\platform\win32 /IE:\programs\cocos2d\cocos2dx\platform\third_party\win32 /IE:\programs\cocos2d\cocos2dx\platform\third_party\win32\OGLES /IE:\programs\cocos2d\external /IE:\programs\cocos2d\CocosDenshion\include /ZI /nologo /W4 /WX- /Od /Oy- /D WIN32 /D _WINDOWS /D STRICT /D _CRT_SECURE_NO_WARNINGS /D _SCL_SECURE_NO_WARNINGS_DEBUG /D COCOS2D_DEBUG=1 /D _UNICODE /D UNICODE /Gm /EHsc /RTC1 /MDd /GS /fp:precise /Zc:wchar_t /Zc:forScope /Fo"DEBUG.WIN32\\" /Fd"DEBUG.WIN32\VC110.PDB" /Gd /TP /wd4267 /wd4251 /wd4244 /analyze- E:\PROGRAMS\COCOS2D\ALPHA_VER006\CLASSES\ACTOR.CPP
^E:\PROGRAMS\COCOS2D\ALPHA_VER006\CLASSES\APPDELEGATE.CPP
/c /I. /I..\Classes /IE:\programs\cocos2d\cocos2dx /IE:\programs\cocos2d\cocos2dx\include /IE:\programs\cocos2d\cocos2dx\kazmath\include /IE:\programs\cocos2d\cocos2dx\platform\win32 /IE:\programs\cocos2d\cocos2dx\platform\third_party\win32 /IE:\programs\cocos2d\cocos2dx\platform\third_party\win32\OGLES /IE:\programs\cocos2d\external /IE:\programs\cocos2d\CocosDenshion\include /ZI /nologo /W4 /WX- /Od /Oy- /D WIN32 /D _WINDOWS /D STRICT /D _CRT_SECURE_NO_WARNINGS /D _SCL_SECURE_NO_WARNINGS_DEBUG /D COCOS2D_DEBUG=1 /D _UNICODE /D UNICODE /Gm /EHsc /RTC1 /MDd /GS /fp:precise /Zc:wchar_t /Zc:forScope /Fo"DEBUG.WIN32\\" /Fd"DEBUG.WIN32\VC110.PDB" /Gd /TP /wd4267 /wd4251 /wd4244 /analyze- E:\PROGRAMS\COCOS2D\ALPHA_VER006\CLASSES\APPDELEGATE.CPP
^E:\PROGRAMS\COCOS2D\ALPHA_VER006\CLASSES\DRAWADVANCEDAREA.CPP
/c /I. /I..\Classes /IE:\programs\cocos2d\cocos2dx /IE:\programs\cocos2d\cocos2dx\include /IE:\programs\cocos2d\cocos2dx\kazmath\include /IE:\programs\cocos2d\cocos2dx\platform\win32 /IE:\programs\cocos2d\cocos2dx\platform\third_party\win32 /IE:\programs\cocos2d\cocos2dx\platform\third_party\win32\OGLES /IE:\programs\cocos2d\external /IE:\programs\cocos2d\CocosDenshion\include /ZI /nologo /W4 /WX- /Od /Oy- /D WIN32 /D _WINDOWS /D STRICT /D _CRT_SECURE_NO_WARNINGS /D _SCL_SECURE_NO_WARNINGS_DEBUG /D COCOS2D_DEBUG=1 /D _UNICODE /D UNICODE /Gm /EHsc /RTC1 /MDd /GS /fp:precise /Zc:wchar_t /Zc:forScope /Fo"DEBUG.WIN32\\" /Fd"DEBUG.WIN32\VC110.PDB" /Gd /TP /wd4267 /wd4251 /wd4244 /analyze- E:\PROGRAMS\COCOS2D\ALPHA_VER006\CLASSES\DRAWADVANCEDAREA.CPP
^E:\PROGRAMS\COCOS2D\ALPHA_VER006\CLASSES\DRAWAREA.CPP
/c /I. /I..\Classes /IE:\programs\cocos2d\cocos2dx /IE:\programs\cocos2d\cocos2dx\include /IE:\programs\cocos2d\cocos2dx\kazmath\include /IE:\programs\cocos2d\cocos2dx\platform\win32 /IE:\programs\cocos2d\cocos2dx\platform\third_party\win32 /IE:\programs\cocos2d\cocos2dx\platform\third_party\win32\OGLES /IE:\programs\cocos2d\external /IE:\programs\cocos2d\CocosDenshion\include /ZI /nologo /W4 /WX- /Od /Oy- /D WIN32 /D _WINDOWS /D STRICT /D _CRT_SECURE_NO_WARNINGS /D _SCL_SECURE_NO_WARNINGS_DEBUG /D COCOS2D_DEBUG=1 /D _UNICODE /D UNICODE /Gm /EHsc /RTC1 /MDd /GS /fp:precise /Zc:wchar_t /Zc:forScope /Fo"DEBUG.WIN32\\" /Fd"DEBUG.WIN32\VC110.PDB" /Gd /TP /wd4267 /wd4251 /wd4244 /analyze- E:\PROGRAMS\COCOS2D\ALPHA_VER006\CLASSES\DRAWAREA.CPP
^E:\PROGRAMS\COCOS2D\ALPHA_VER006\CLASSES\GRIDMAP.CPP
/c /I. /I..\Classes /IE:\programs\cocos2d\cocos2dx /IE:\programs\cocos2d\cocos2dx\include /IE:\programs\cocos2d\cocos2dx\kazmath\include /IE:\programs\cocos2d\cocos2dx\platform\win32 /IE:\programs\cocos2d\cocos2dx\platform\third_party\win32 /IE:\programs\cocos2d\cocos2dx\platform\third_party\win32\OGLES /IE:\programs\cocos2d\external /IE:\programs\cocos2d\CocosDenshion\include /ZI /nologo /W4 /WX- /Od /Oy- /D WIN32 /D _WINDOWS /D STRICT /D _CRT_SECURE_NO_WARNINGS /D _SCL_SECURE_NO_WARNINGS_DEBUG /D COCOS2D_DEBUG=1 /D _UNICODE /D UNICODE /Gm /EHsc /RTC1 /MDd /GS /fp:precise /Zc:wchar_t /Zc:forScope /Fo"DEBUG.WIN32\\" /Fd"DEBUG.WIN32\VC110.PDB" /Gd /TP /wd4267 /wd4251 /wd4244 /analyze- E:\PROGRAMS\COCOS2D\ALPHA_VER006\CLASSES\GRIDMAP.CPP
^E:\PROGRAMS\COCOS2D\ALPHA_VER006\CLASSES\MENU.CPP
/c /I. /I..\Classes /IE:\programs\cocos2d\cocos2dx /IE:\programs\cocos2d\cocos2dx\include /IE:\programs\cocos2d\cocos2dx\kazmath\include /IE:\programs\cocos2d\cocos2dx\platform\win32 /IE:\programs\cocos2d\cocos2dx\platform\third_party\win32 /IE:\programs\cocos2d\cocos2dx\platform\third_party\win32\OGLES /IE:\programs\cocos2d\external /IE:\programs\cocos2d\CocosDenshion\include /ZI /nologo /W4 /WX- /Od /Oy- /D WIN32 /D _WINDOWS /D STRICT /D _CRT_SECURE_NO_WARNINGS /D _SCL_SECURE_NO_WARNINGS_DEBUG /D COCOS2D_DEBUG=1 /D _UNICODE /D UNICODE /Gm /EHsc /RTC1 /MDd /GS /fp:precise /Zc:wchar_t /Zc:forScope /Fo"DEBUG.WIN32\\" /Fd"DEBUG.WIN32\VC110.PDB" /Gd /TP /wd4267 /wd4251 /wd4244 /analyze- E:\PROGRAMS\COCOS2D\ALPHA_VER006\CLASSES\MENU.CPP
^E:\PROGRAMS\COCOS2D\ALPHA_VER006\CLASSES\PLAYER.CPP
/c /I. /I..\Classes /IE:\programs\cocos2d\cocos2dx /IE:\programs\cocos2d\cocos2dx\include /IE:\programs\cocos2d\cocos2dx\kazmath\include /IE:\programs\cocos2d\cocos2dx\platform\win32 /IE:\programs\cocos2d\cocos2dx\platform\third_party\win32 /IE:\programs\cocos2d\cocos2dx\platform\third_party\win32\OGLES /IE:\programs\cocos2d\external /IE:\programs\cocos2d\CocosDenshion\include /ZI /nologo /W4 /WX- /Od /Oy- /D WIN32 /D _WINDOWS /D STRICT /D _CRT_SECURE_NO_WARNINGS /D _SCL_SECURE_NO_WARNINGS_DEBUG /D COCOS2D_DEBUG=1 /D _UNICODE /D UNICODE /Gm /EHsc /RTC1 /MDd /GS /fp:precise /Zc:wchar_t /Zc:forScope /Fo"DEBUG.WIN32\\" /Fd"DEBUG.WIN32\VC110.PDB" /Gd /TP /wd4267 /wd4251 /wd4244 /analyze- E:\PROGRAMS\COCOS2D\ALPHA_VER006\CLASSES\PLAYER.CPP
^E:\PROGRAMS\COCOS2D\ALPHA_VER006\CLASSES\SIMPLEAI.CPP
/c /I. /I..\Classes /IE:\programs\cocos2d\cocos2dx /IE:\programs\cocos2d\cocos2dx\include /IE:\programs\cocos2d\cocos2dx\kazmath\include /IE:\programs\cocos2d\cocos2dx\platform\win32 /IE:\programs\cocos2d\cocos2dx\platform\third_party\win32 /IE:\programs\cocos2d\cocos2dx\platform\third_party\win32\OGLES /IE:\programs\cocos2d\external /IE:\programs\cocos2d\CocosDenshion\include /ZI /nologo /W4 /WX- /Od /Oy- /D WIN32 /D _WINDOWS /D STRICT /D _CRT_SECURE_NO_WARNINGS /D _SCL_SECURE_NO_WARNINGS_DEBUG /D COCOS2D_DEBUG=1 /D _UNICODE /D UNICODE /Gm /EHsc /RTC1 /MDd /GS /fp:precise /Zc:wchar_t /Zc:forScope /Fo"DEBUG.WIN32\\" /Fd"DEBUG.WIN32\VC110.PDB" /Gd /TP /wd4267 /wd4251 /wd4244 /analyze- E:\PROGRAMS\COCOS2D\ALPHA_VER006\CLASSES\SIMPLEAI.CPP
^E:\PROGRAMS\COCOS2D\ALPHA_VER006\CLASSES\TURNCOUNT.CPP
/c /I. /I..\Classes /IE:\programs\cocos2d\cocos2dx /IE:\programs\cocos2d\cocos2dx\include /IE:\programs\cocos2d\cocos2dx\kazmath\include /IE:\programs\cocos2d\cocos2dx\platform\win32 /IE:\programs\cocos2d\cocos2dx\platform\third_party\win32 /IE:\programs\cocos2d\cocos2dx\platform\third_party\win32\OGLES /IE:\programs\cocos2d\external /IE:\programs\cocos2d\CocosDenshion\include /ZI /nologo /W4 /WX- /Od /Oy- /D WIN32 /D _WINDOWS /D STRICT /D _CRT_SECURE_NO_WARNINGS /D _SCL_SECURE_NO_WARNINGS_DEBUG /D COCOS2D_DEBUG=1 /D _UNICODE /D UNICODE /Gm /EHsc /RTC1 /MDd /GS /fp:precise /Zc:wchar_t /Zc:forScope /Fo"DEBUG.WIN32\\" /Fd"DEBUG.WIN32\VC110.PDB" /Gd /TP /wd4267 /wd4251 /wd4244 /analyze- E:\PROGRAMS\COCOS2D\ALPHA_VER006\CLASSES\TURNCOUNT.CPP
^E:\PROGRAMS\COCOS2D\ALPHA_VER006\CLASSES\DRAWGRIDS.CPP
/c /I. /I..\Classes /IE:\programs\cocos2d\cocos2dx /IE:\programs\cocos2d\cocos2dx\include /IE:\programs\cocos2d\cocos2dx\kazmath\include /IE:\programs\cocos2d\cocos2dx\platform\win32 /IE:\programs\cocos2d\cocos2dx\platform\third_party\win32 /IE:\programs\cocos2d\cocos2dx\platform\third_party\win32\OGLES /IE:\programs\cocos2d\external /IE:\programs\cocos2d\CocosDenshion\include /ZI /nologo /W4 /WX- /Od /Oy- /D WIN32 /D _WINDOWS /D STRICT /D _CRT_SECURE_NO_WARNINGS /D _SCL_SECURE_NO_WARNINGS_DEBUG /D COCOS2D_DEBUG=1 /D _UNICODE /D UNICODE /Gm /EHsc /RTC1 /MDd /GS /fp:precise /Zc:wchar_t /Zc:forScope /Fo"DEBUG.WIN32\\" /Fd"DEBUG.WIN32\VC110.PDB" /Gd /TP /wd4267 /wd4251 /wd4244 /analyze- E:\PROGRAMS\COCOS2D\ALPHA_VER006\CLASSES\DRAWGRIDS.CPP
^E:\PROGRAMS\COCOS2D\ALPHA_VER006\CLASSES\MENUSCENE.CPP
/c /I. /I..\Classes /IE:\programs\cocos2d\cocos2dx /IE:\programs\cocos2d\cocos2dx\include /IE:\programs\cocos2d\cocos2dx\kazmath\include /IE:\programs\cocos2d\cocos2dx\platform\win32 /IE:\programs\cocos2d\cocos2dx\platform\third_party\win32 /IE:\programs\cocos2d\cocos2dx\platform\third_party\win32\OGLES /IE:\programs\cocos2d\external /IE:\programs\cocos2d\CocosDenshion\include /ZI /nologo /W4 /WX- /Od /Oy- /D WIN32 /D _WINDOWS /D STRICT /D _CRT_SECURE_NO_WARNINGS /D _SCL_SECURE_NO_WARNINGS_DEBUG /D COCOS2D_DEBUG=1 /D _UNICODE /D UNICODE /Gm /EHsc /RTC1 /MDd /GS /fp:precise /Zc:wchar_t /Zc:forScope /Fo"DEBUG.WIN32\\" /Fd"DEBUG.WIN32\VC110.PDB" /Gd /TP /wd4267 /wd4251 /wd4244 /analyze- E:\PROGRAMS\COCOS2D\ALPHA_VER006\CLASSES\MENUSCENE.CPP
^E:\PROGRAMS\COCOS2D\ALPHA_VER006\CLASSES\PLAYINGSCENE.CPP
/c /I. /I..\Classes /IE:\programs\cocos2d\cocos2dx /IE:\programs\cocos2d\cocos2dx\include /IE:\programs\cocos2d\cocos2dx\kazmath\include /IE:\programs\cocos2d\cocos2dx\platform\win32 /IE:\programs\cocos2d\cocos2dx\platform\third_party\win32 /IE:\programs\cocos2d\cocos2dx\platform\third_party\win32\OGLES /IE:\programs\cocos2d\external /IE:\programs\cocos2d\CocosDenshion\include /ZI /nologo /W4 /WX- /Od /Oy- /D WIN32 /D _WINDOWS /D STRICT /D _CRT_SECURE_NO_WARNINGS /D _SCL_SECURE_NO_WARNINGS_DEBUG /D COCOS2D_DEBUG=1 /D _UNICODE /D UNICODE /Gm /EHsc /RTC1 /MDd /GS /fp:precise /Zc:wchar_t /Zc:forScope /Fo"DEBUG.WIN32\\" /Fd"DEBUG.WIN32\VC110.PDB" /Gd /TP /wd4267 /wd4251 /wd4244 /analyze- E:\PROGRAMS\COCOS2D\ALPHA_VER006\CLASSES\PLAYINGSCENE.CPP
^E:\PROGRAMS\COCOS2D\ALPHA_VER006\CLASSES\STATE.CPP
/c /I. /I..\Classes /IE:\programs\cocos2d\cocos2dx /IE:\programs\cocos2d\cocos2dx\include /IE:\programs\cocos2d\cocos2dx\kazmath\include /IE:\programs\cocos2d\cocos2dx\platform\win32 /IE:\programs\cocos2d\cocos2dx\platform\third_party\win32 /IE:\programs\cocos2d\cocos2dx\platform\third_party\win32\OGLES /IE:\programs\cocos2d\external /IE:\programs\cocos2d\CocosDenshion\include /ZI /nologo /W4 /WX- /Od /Oy- /D WIN32 /D _WINDOWS /D STRICT /D _CRT_SECURE_NO_WARNINGS /D _SCL_SECURE_NO_WARNINGS_DEBUG /D COCOS2D_DEBUG=1 /D _UNICODE /D UNICODE /Gm /EHsc /RTC1 /MDd /GS /fp:precise /Zc:wchar_t /Zc:forScope /Fo"DEBUG.WIN32\\" /Fd"DEBUG.WIN32\VC110.PDB" /Gd /TP /wd4267 /wd4251 /wd4244 /analyze- E:\PROGRAMS\COCOS2D\ALPHA_VER006\CLASSES\STATE.CPP
^E:\PROGRAMS\COCOS2D\ALPHA_VER006\CLASSES\STATEMACHINE.CPP
/c /I. /I..\Classes /IE:\programs\cocos2d\cocos2dx /IE:\programs\cocos2d\cocos2dx\include /IE:\programs\cocos2d\cocos2dx\kazmath\include /IE:\programs\cocos2d\cocos2dx\platform\win32 /IE:\programs\cocos2d\cocos2dx\platform\third_party\win32 /IE:\programs\cocos2d\cocos2dx\platform\third_party\win32\OGLES /IE:\programs\cocos2d\external /IE:\programs\cocos2d\CocosDenshion\include /ZI /nologo /W4 /WX- /Od /Oy- /D WIN32 /D _WINDOWS /D STRICT /D _CRT_SECURE_NO_WARNINGS /D _SCL_SECURE_NO_WARNINGS_DEBUG /D COCOS2D_DEBUG=1 /D _UNICODE /D UNICODE /Gm /EHsc /RTC1 /MDd /GS /fp:precise /Zc:wchar_t /Zc:forScope /Fo"DEBUG.WIN32\\" /Fd"DEBUG.WIN32\VC110.PDB" /Gd /TP /wd4267 /wd4251 /wd4244 /analyze- E:\PROGRAMS\COCOS2D\ALPHA_VER006\CLASSES\STATEMACHINE.CPP
^E:\PROGRAMS\COCOS2D\ALPHA_VER006\CLASSES\UNITSELECT.CPP
/c /I. /I..\Classes /IE:\programs\cocos2d\cocos2dx /IE:\programs\cocos2d\cocos2dx\include /IE:\programs\cocos2d\cocos2dx\kazmath\include /IE:\programs\cocos2d\cocos2dx\platform\win32 /IE:\programs\cocos2d\cocos2dx\platform\third_party\win32 /IE:\programs\cocos2d\cocos2dx\platform\third_party\win32\OGLES /IE:\programs\cocos2d\external /IE:\programs\cocos2d\CocosDenshion\include /ZI /nologo /W4 /WX- /Od /Oy- /D WIN32 /D _WINDOWS /D STRICT /D _CRT_SECURE_NO_WARNINGS /D _SCL_SECURE_NO_WARNINGS_DEBUG /D COCOS2D_DEBUG=1 /D _UNICODE /D UNICODE /Gm /EHsc /RTC1 /MDd /GS /fp:precise /Zc:wchar_t /Zc:forScope /Fo"DEBUG.WIN32\\" /Fd"DEBUG.WIN32\VC110.PDB" /Gd /TP /wd4267 /wd4251 /wd4244 /analyze- E:\PROGRAMS\COCOS2D\ALPHA_VER006\CLASSES\UNITSELECT.CPP
^E:\PROGRAMS\COCOS2D\ALPHA_VER006\PROJ.WIN32\MAIN.CPP
/c /I. /I..\Classes /IE:\programs\cocos2d\cocos2dx /IE:\programs\cocos2d\cocos2dx\include /IE:\programs\cocos2d\cocos2dx\kazmath\include /IE:\programs\cocos2d\cocos2dx\platform\win32 /IE:\programs\cocos2d\cocos2dx\platform\third_party\win32 /IE:\programs\cocos2d\cocos2dx\platform\third_party\win32\OGLES /IE:\programs\cocos2d\external /IE:\programs\cocos2d\CocosDenshion\include /ZI /nologo /W4 /WX- /Od /Oy- /D WIN32 /D _WINDOWS /D STRICT /D _CRT_SECURE_NO_WARNINGS /D _SCL_SECURE_NO_WARNINGS_DEBUG /D COCOS2D_DEBUG=1 /D _UNICODE /D UNICODE /Gm /EHsc /RTC1 /MDd /GS /fp:precise /Zc:wchar_t /Zc:forScope /Fo"DEBUG.WIN32\\" /Fd"DEBUG.WIN32\VC110.PDB" /Gd /TP /wd4267 /wd4251 /wd4244 /analyze- E:\PROGRAMS\COCOS2D\ALPHA_VER006\PROJ.WIN32\MAIN.CPP
^E:\PROGRAMS\COCOS2D\ALPHA_VER010\CLASSES\ACT.CPP
/c /I. /I..\Classes /IE:\programs\cocos2d\cocos2dx /IE:\programs\cocos2d\cocos2dx\include /IE:\programs\cocos2d\cocos2dx\kazmath\include /IE:\programs\cocos2d\cocos2dx\platform\win32 /IE:\programs\cocos2d\cocos2dx\platform\third_party\win32 /IE:\programs\cocos2d\cocos2dx\platform\third_party\win32\OGLES /IE:\programs\cocos2d\external /IE:\programs\cocos2d\CocosDenshion\include /ZI /nologo /W4 /WX- /Od /Oy- /D WIN32 /D _WINDOWS /D STRICT /D _CRT_SECURE_NO_WARNINGS /D _SCL_SECURE_NO_WARNINGS_DEBUG /D COCOS2D_DEBUG=1 /D _UNICODE /D UNICODE /Gm /EHsc /RTC1 /MDd /GS /fp:precise /Zc:wchar_t /Zc:forScope /Fo"DEBUG.WIN32\\" /Fd"DEBUG.WIN32\VC110.PDB" /Gd /TP /wd4267 /wd4251 /wd4244 /analyze- E:\PROGRAMS\COCOS2D\ALPHA_VER010\CLASSES\ACT.CPP
^E:\PROGRAMS\COCOS2D\ALPHA_VER010\CLASSES\ACTOR.CPP
/c /I. /I..\Classes /IE:\programs\cocos2d\cocos2dx /IE:\programs\cocos2d\cocos2dx\include /IE:\programs\cocos2d\cocos2dx\kazmath\include /IE:\programs\cocos2d\cocos2dx\platform\win32 /IE:\programs\cocos2d\cocos2dx\platform\third_party\win32 /IE:\programs\cocos2d\cocos2dx\platform\third_party\win32\OGLES /IE:\programs\cocos2d\external /IE:\programs\cocos2d\CocosDenshion\include /ZI /nologo /W4 /WX- /Od /Oy- /D WIN32 /D _WINDOWS /D STRICT /D _CRT_SECURE_NO_WARNINGS /D _SCL_SECURE_NO_WARNINGS_DEBUG /D COCOS2D_DEBUG=1 /D _UNICODE /D UNICODE /Gm /EHsc /RTC1 /MDd /GS /fp:precise /Zc:wchar_t /Zc:forScope /Fo"DEBUG.WIN32\\" /Fd"DEBUG.WIN32\VC110.PDB" /Gd /TP /wd4267 /wd4251 /wd4244 /analyze- E:\PROGRAMS\COCOS2D\ALPHA_VER010\CLASSES\ACTOR.CPP
^E:\PROGRAMS\COCOS2D\ALPHA_VER010\CLASSES\APPDELEGATE.CPP
/c /I. /I..\Classes /IE:\programs\cocos2d\cocos2dx /IE:\programs\cocos2d\cocos2dx\include /IE:\programs\cocos2d\cocos2dx\kazmath\include /IE:\programs\cocos2d\cocos2dx\platform\win32 /IE:\programs\cocos2d\cocos2dx\platform\third_party\win32 /IE:\programs\cocos2d\cocos2dx\platform\third_party\win32\OGLES /IE:\programs\cocos2d\external /IE:\programs\cocos2d\CocosDenshion\include /ZI /nologo /W4 /WX- /Od /Oy- /D WIN32 /D _WINDOWS /D STRICT /D _CRT_SECURE_NO_WARNINGS /D _SCL_SECURE_NO_WARNINGS_DEBUG /D COCOS2D_DEBUG=1 /D _UNICODE /D UNICODE /Gm /EHsc /RTC1 /MDd /GS /fp:precise /Zc:wchar_t /Zc:forScope /Fo"DEBUG.WIN32\\" /Fd"DEBUG.WIN32\VC110.PDB" /Gd /TP /wd4267 /wd4251 /wd4244 /analyze- E:\PROGRAMS\COCOS2D\ALPHA_VER010\CLASSES\APPDELEGATE.CPP
^E:\PROGRAMS\COCOS2D\ALPHA_VER010\CLASSES\DRAWADVANCEDAREA.CPP
/c /I. /I..\Classes /IE:\programs\cocos2d\cocos2dx /IE:\programs\cocos2d\cocos2dx\include /IE:\programs\cocos2d\cocos2dx\kazmath\include /IE:\programs\cocos2d\cocos2dx\platform\win32 /IE:\programs\cocos2d\cocos2dx\platform\third_party\win32 /IE:\programs\cocos2d\cocos2dx\platform\third_party\win32\OGLES /IE:\programs\cocos2d\external /IE:\programs\cocos2d\CocosDenshion\include /ZI /nologo /W4 /WX- /Od /Oy- /D WIN32 /D _WINDOWS /D STRICT /D _CRT_SECURE_NO_WARNINGS /D _SCL_SECURE_NO_WARNINGS_DEBUG /D COCOS2D_DEBUG=1 /D _UNICODE /D UNICODE /Gm /EHsc /RTC1 /MDd /GS /fp:precise /Zc:wchar_t /Zc:forScope /Fo"DEBUG.WIN32\\" /Fd"DEBUG.WIN32\VC110.PDB" /Gd /TP /wd4267 /wd4251 /wd4244 /analyze- E:\PROGRAMS\COCOS2D\ALPHA_VER010\CLASSES\DRAWADVANCEDAREA.CPP
^E:\PROGRAMS\COCOS2D\ALPHA_VER010\CLASSES\DRAWAREA.CPP
/c /I. /I..\Classes /IE:\programs\cocos2d\cocos2dx /IE:\programs\cocos2d\cocos2dx\include /IE:\programs\cocos2d\cocos2dx\kazmath\include /IE:\programs\cocos2d\cocos2dx\platform\win32 /IE:\programs\cocos2d\cocos2dx\platform\third_party\win32 /IE:\programs\cocos2d\cocos2dx\platform\third_party\win32\OGLES /IE:\programs\cocos2d\external /IE:\programs\cocos2d\CocosDenshion\include /ZI /nologo /W4 /WX- /Od /Oy- /D WIN32 /D _WINDOWS /D STRICT /D _CRT_SECURE_NO_WARNINGS /D _SCL_SECURE_NO_WARNINGS_DEBUG /D COCOS2D_DEBUG=1 /D _UNICODE /D UNICODE /Gm /EHsc /RTC1 /MDd /GS /fp:precise /Zc:wchar_t /Zc:forScope /Fo"DEBUG.WIN32\\" /Fd"DEBUG.WIN32\VC110.PDB" /Gd /TP /wd4267 /wd4251 /wd4244 /analyze- E:\PROGRAMS\COCOS2D\ALPHA_VER010\CLASSES\DRAWAREA.CPP
^E:\PROGRAMS\COCOS2D\ALPHA_VER010\CLASSES\GRIDMAP.CPP
/c /I. /I..\Classes /IE:\programs\cocos2d\cocos2dx /IE:\programs\cocos2d\cocos2dx\include /IE:\programs\cocos2d\cocos2dx\kazmath\include /IE:\programs\cocos2d\cocos2dx\platform\win32 /IE:\programs\cocos2d\cocos2dx\platform\third_party\win32 /IE:\programs\cocos2d\cocos2dx\platform\third_party\win32\OGLES /IE:\programs\cocos2d\external /IE:\programs\cocos2d\CocosDenshion\include /ZI /nologo /W4 /WX- /Od /Oy- /D WIN32 /D _WINDOWS /D STRICT /D _CRT_SECURE_NO_WARNINGS /D _SCL_SECURE_NO_WARNINGS_DEBUG /D COCOS2D_DEBUG=1 /D _UNICODE /D UNICODE /Gm /EHsc /RTC1 /MDd /GS /fp:precise /Zc:wchar_t /Zc:forScope /Fo"DEBUG.WIN32\\" /Fd"DEBUG.WIN32\VC110.PDB" /Gd /TP /wd4267 /wd4251 /wd4244 /analyze- E:\PROGRAMS\COCOS2D\ALPHA_VER010\CLASSES\GRIDMAP.CPP
^E:\PROGRAMS\COCOS2D\ALPHA_VER010\CLASSES\MENU.CPP
/c /I. /I..\Classes /IE:\programs\cocos2d\cocos2dx /IE:\programs\cocos2d\cocos2dx\include /IE:\programs\cocos2d\cocos2dx\kazmath\include /IE:\programs\cocos2d\cocos2dx\platform\win32 /IE:\programs\cocos2d\cocos2dx\platform\third_party\win32 /IE:\programs\cocos2d\cocos2dx\platform\third_party\win32\OGLES /IE:\programs\cocos2d\external /IE:\programs\cocos2d\CocosDenshion\include /ZI /nologo /W4 /WX- /Od /Oy- /D WIN32 /D _WINDOWS /D STRICT /D _CRT_SECURE_NO_WARNINGS /D _SCL_SECURE_NO_WARNINGS_DEBUG /D COCOS2D_DEBUG=1 /D _UNICODE /D UNICODE /Gm /EHsc /RTC1 /MDd /GS /fp:precise /Zc:wchar_t /Zc:forScope /Fo"DEBUG.WIN32\\" /Fd"DEBUG.WIN32\VC110.PDB" /Gd /TP /wd4267 /wd4251 /wd4244 /analyze- E:\PROGRAMS\COCOS2D\ALPHA_VER010\CLASSES\MENU.CPP
^E:\PROGRAMS\COCOS2D\ALPHA_VER010\CLASSES\PLAYER.CPP
/c /I. /I..\Classes /IE:\programs\cocos2d\cocos2dx /IE:\programs\cocos2d\cocos2dx\include /IE:\programs\cocos2d\cocos2dx\kazmath\include /IE:\programs\cocos2d\cocos2dx\platform\win32 /IE:\programs\cocos2d\cocos2dx\platform\third_party\win32 /IE:\programs\cocos2d\cocos2dx\platform\third_party\win32\OGLES /IE:\programs\cocos2d\external /IE:\programs\cocos2d\CocosDenshion\include /ZI /nologo /W4 /WX- /Od /Oy- /D WIN32 /D _WINDOWS /D STRICT /D _CRT_SECURE_NO_WARNINGS /D _SCL_SECURE_NO_WARNINGS_DEBUG /D COCOS2D_DEBUG=1 /D _UNICODE /D UNICODE /Gm /EHsc /RTC1 /MDd /GS /fp:precise /Zc:wchar_t /Zc:forScope /Fo"DEBUG.WIN32\\" /Fd"DEBUG.WIN32\VC110.PDB" /Gd /TP /wd4267 /wd4251 /wd4244 /analyze- E:\PROGRAMS\COCOS2D\ALPHA_VER010\CLASSES\PLAYER.CPP
^E:\PROGRAMS\COCOS2D\ALPHA_VER010\CLASSES\SIMPLEAI.CPP
/c /I. /I..\Classes /IE:\programs\cocos2d\cocos2dx /IE:\programs\cocos2d\cocos2dx\include /IE:\programs\cocos2d\cocos2dx\kazmath\include /IE:\programs\cocos2d\cocos2dx\platform\win32 /IE:\programs\cocos2d\cocos2dx\platform\third_party\win32 /IE:\programs\cocos2d\cocos2dx\platform\third_party\win32\OGLES /IE:\programs\cocos2d\external /IE:\programs\cocos2d\CocosDenshion\include /ZI /nologo /W4 /WX- /Od /Oy- /D WIN32 /D _WINDOWS /D STRICT /D _CRT_SECURE_NO_WARNINGS /D _SCL_SECURE_NO_WARNINGS_DEBUG /D COCOS2D_DEBUG=1 /D _UNICODE /D UNICODE /Gm /EHsc /RTC1 /MDd /GS /fp:precise /Zc:wchar_t /Zc:forScope /Fo"DEBUG.WIN32\\" /Fd"DEBUG.WIN32\VC110.PDB" /Gd /TP /wd4267 /wd4251 /wd4244 /analyze- E:\PROGRAMS\COCOS2D\ALPHA_VER010\CLASSES\SIMPLEAI.CPP
^E:\PROGRAMS\COCOS2D\ALPHA_VER010\CLASSES\TURNCOUNT.CPP
/c /I. /I..\Classes /IE:\programs\cocos2d\cocos2dx /IE:\programs\cocos2d\cocos2dx\include /IE:\programs\cocos2d\cocos2dx\kazmath\include /IE:\programs\cocos2d\cocos2dx\platform\win32 /IE:\programs\cocos2d\cocos2dx\platform\third_party\win32 /IE:\programs\cocos2d\cocos2dx\platform\third_party\win32\OGLES /IE:\programs\cocos2d\external /IE:\programs\cocos2d\CocosDenshion\include /ZI /nologo /W4 /WX- /Od /Oy- /D WIN32 /D _WINDOWS /D STRICT /D _CRT_SECURE_NO_WARNINGS /D _SCL_SECURE_NO_WARNINGS_DEBUG /D COCOS2D_DEBUG=1 /D _UNICODE /D UNICODE /Gm /EHsc /RTC1 /MDd /GS /fp:precise /Zc:wchar_t /Zc:forScope /Fo"DEBUG.WIN32\\" /Fd"DEBUG.WIN32\VC110.PDB" /Gd /TP /wd4267 /wd4251 /wd4244 /analyze- E:\PROGRAMS\COCOS2D\ALPHA_VER010\CLASSES\TURNCOUNT.CPP
^E:\PROGRAMS\COCOS2D\ALPHA_VER010\CLASSES\DRAWGRIDS.CPP
/c /I. /I..\Classes /IE:\programs\cocos2d\cocos2dx /IE:\programs\cocos2d\cocos2dx\include /IE:\programs\cocos2d\cocos2dx\kazmath\include /IE:\programs\cocos2d\cocos2dx\platform\win32 /IE:\programs\cocos2d\cocos2dx\platform\third_party\win32 /IE:\programs\cocos2d\cocos2dx\platform\third_party\win32\OGLES /IE:\programs\cocos2d\external /IE:\programs\cocos2d\CocosDenshion\include /ZI /nologo /W4 /WX- /Od /Oy- /D WIN32 /D _WINDOWS /D STRICT /D _CRT_SECURE_NO_WARNINGS /D _SCL_SECURE_NO_WARNINGS_DEBUG /D COCOS2D_DEBUG=1 /D _UNICODE /D UNICODE /Gm /EHsc /RTC1 /MDd /GS /fp:precise /Zc:wchar_t /Zc:forScope /Fo"DEBUG.WIN32\\" /Fd"DEBUG.WIN32\VC110.PDB" /Gd /TP /wd4267 /wd4251 /wd4244 /analyze- E:\PROGRAMS\COCOS2D\ALPHA_VER010\CLASSES\DRAWGRIDS.CPP
^E:\PROGRAMS\COCOS2D\ALPHA_VER010\CLASSES\MENUSCENE.CPP
/c /I. /I..\Classes /IE:\programs\cocos2d\cocos2dx /IE:\programs\cocos2d\cocos2dx\include /IE:\programs\cocos2d\cocos2dx\kazmath\include /IE:\programs\cocos2d\cocos2dx\platform\win32 /IE:\programs\cocos2d\cocos2dx\platform\third_party\win32 /IE:\programs\cocos2d\cocos2dx\platform\third_party\win32\OGLES /IE:\programs\cocos2d\external /IE:\programs\cocos2d\CocosDenshion\include /ZI /nologo /W4 /WX- /Od /Oy- /D WIN32 /D _WINDOWS /D STRICT /D _CRT_SECURE_NO_WARNINGS /D _SCL_SECURE_NO_WARNINGS_DEBUG /D COCOS2D_DEBUG=1 /D _UNICODE /D UNICODE /Gm /EHsc /RTC1 /MDd /GS /fp:precise /Zc:wchar_t /Zc:forScope /Fo"DEBUG.WIN32\\" /Fd"DEBUG.WIN32\VC110.PDB" /Gd /TP /wd4267 /wd4251 /wd4244 /analyze- E:\PROGRAMS\COCOS2D\ALPHA_VER010\CLASSES\MENUSCENE.CPP
^E:\PROGRAMS\COCOS2D\ALPHA_VER010\CLASSES\PLAYINGSCENE.CPP
/c /I. /I..\Classes /IE:\programs\cocos2d\cocos2dx /IE:\programs\cocos2d\cocos2dx\include /IE:\programs\cocos2d\cocos2dx\kazmath\include /IE:\programs\cocos2d\cocos2dx\platform\win32 /IE:\programs\cocos2d\cocos2dx\platform\third_party\win32 /IE:\programs\cocos2d\cocos2dx\platform\third_party\win32\OGLES /IE:\programs\cocos2d\external /IE:\programs\cocos2d\CocosDenshion\include /ZI /nologo /W4 /WX- /Od /Oy- /D WIN32 /D _WINDOWS /D STRICT /D _CRT_SECURE_NO_WARNINGS /D _SCL_SECURE_NO_WARNINGS_DEBUG /D COCOS2D_DEBUG=1 /D _UNICODE /D UNICODE /Gm /EHsc /RTC1 /MDd /GS /fp:precise /Zc:wchar_t /Zc:forScope /Fo"DEBUG.WIN32\\" /Fd"DEBUG.WIN32\VC110.PDB" /Gd /TP /wd4267 /wd4251 /wd4244 /analyze- E:\PROGRAMS\COCOS2D\ALPHA_VER010\CLASSES\PLAYINGSCENE.CPP
^E:\PROGRAMS\COCOS2D\ALPHA_VER010\CLASSES\STATE.CPP
/c /I. /I..\Classes /IE:\programs\cocos2d\cocos2dx /IE:\programs\cocos2d\cocos2dx\include /IE:\programs\cocos2d\cocos2dx\kazmath\include /IE:\programs\cocos2d\cocos2dx\platform\win32 /IE:\programs\cocos2d\cocos2dx\platform\third_party\win32 /IE:\programs\cocos2d\cocos2dx\platform\third_party\win32\OGLES /IE:\programs\cocos2d\external /IE:\programs\cocos2d\CocosDenshion\include /ZI /nologo /W4 /WX- /Od /Oy- /D WIN32 /D _WINDOWS /D STRICT /D _CRT_SECURE_NO_WARNINGS /D _SCL_SECURE_NO_WARNINGS_DEBUG /D COCOS2D_DEBUG=1 /D _UNICODE /D UNICODE /Gm /EHsc /RTC1 /MDd /GS /fp:precise /Zc:wchar_t /Zc:forScope /Fo"DEBUG.WIN32\\" /Fd"DEBUG.WIN32\VC110.PDB" /Gd /TP /wd4267 /wd4251 /wd4244 /analyze- E:\PROGRAMS\COCOS2D\ALPHA_VER010\CLASSES\STATE.CPP
^E:\PROGRAMS\COCOS2D\ALPHA_VER010\CLASSES\STATEMACHINE.CPP
/c /I. /I..\Classes /IE:\programs\cocos2d\cocos2dx /IE:\programs\cocos2d\cocos2dx\include /IE:\programs\cocos2d\cocos2dx\kazmath\include /IE:\programs\cocos2d\cocos2dx\platform\win32 /IE:\programs\cocos2d\cocos2dx\platform\third_party\win32 /IE:\programs\cocos2d\cocos2dx\platform\third_party\win32\OGLES /IE:\programs\cocos2d\external /IE:\programs\cocos2d\CocosDenshion\include /ZI /nologo /W4 /WX- /Od /Oy- /D WIN32 /D _WINDOWS /D STRICT /D _CRT_SECURE_NO_WARNINGS /D _SCL_SECURE_NO_WARNINGS_DEBUG /D COCOS2D_DEBUG=1 /D _UNICODE /D UNICODE /Gm /EHsc /RTC1 /MDd /GS /fp:precise /Zc:wchar_t /Zc:forScope /Fo"DEBUG.WIN32\\" /Fd"DEBUG.WIN32\VC110.PDB" /Gd /TP /wd4267 /wd4251 /wd4244 /analyze- E:\PROGRAMS\COCOS2D\ALPHA_VER010\CLASSES\STATEMACHINE.CPP
^E:\PROGRAMS\COCOS2D\ALPHA_VER010\CLASSES\UNITSELECT.CPP
/c /I. /I..\Classes /IE:\programs\cocos2d\cocos2dx /IE:\programs\cocos2d\cocos2dx\include /IE:\programs\cocos2d\cocos2dx\kazmath\include /IE:\programs\cocos2d\cocos2dx\platform\win32 /IE:\programs\cocos2d\cocos2dx\platform\third_party\win32 /IE:\programs\cocos2d\cocos2dx\platform\third_party\win32\OGLES /IE:\programs\cocos2d\external /IE:\programs\cocos2d\CocosDenshion\include /ZI /nologo /W4 /WX- /Od /Oy- /D WIN32 /D _WINDOWS /D STRICT /D _CRT_SECURE_NO_WARNINGS /D _SCL_SECURE_NO_WARNINGS_DEBUG /D COCOS2D_DEBUG=1 /D _UNICODE /D UNICODE /Gm /EHsc /RTC1 /MDd /GS /fp:precise /Zc:wchar_t /Zc:forScope /Fo"DEBUG.WIN32\\" /Fd"DEBUG.WIN32\VC110.PDB" /Gd /TP /wd4267 /wd4251 /wd4244 /analyze- E:\PROGRAMS\COCOS2D\ALPHA_VER010\CLASSES\UNITSELECT.CPP
^E:\PROGRAMS\COCOS2D\ALPHA_VER010\PROJ.WIN32\MAIN.CPP
/c /I. /I..\Classes /IE:\programs\cocos2d\cocos2dx /IE:\programs\cocos2d\cocos2dx\include /IE:\programs\cocos2d\cocos2dx\kazmath\include /IE:\programs\cocos2d\cocos2dx\platform\win32 /IE:\programs\cocos2d\cocos2dx\platform\third_party\win32 /IE:\programs\cocos2d\cocos2dx\platform\third_party\win32\OGLES /IE:\programs\cocos2d\external /IE:\programs\cocos2d\CocosDenshion\include /ZI /nologo /W4 /WX- /Od /Oy- /D WIN32 /D _WINDOWS /D STRICT /D _CRT_SECURE_NO_WARNINGS /D _SCL_SECURE_NO_WARNINGS_DEBUG /D COCOS2D_DEBUG=1 /D _UNICODE /D UNICODE /Gm /EHsc /RTC1 /MDd /GS /fp:precise /Zc:wchar_t /Zc:forScope /Fo"DEBUG.WIN32\\" /Fd"DEBUG.WIN32\VC110.PDB" /Gd /TP /wd4267 /wd4251 /wd4244 /analyze- E:\PROGRAMS\COCOS2D\ALPHA_VER010\PROJ.WIN32\MAIN.CPP
