^E:\PROGRAMS\COCOS2D\ALPHA_VER005\PROJ.WIN32\ALTERATION.RC
/D _DEBUG /D _UNICODE /D UNICODE /l"0x0409" /IDebug.win32\ /nologo /fo"DEBUG.WIN32\ALTERATION.RES" ALTERATION.RC /D _DEBUG /D _UNICODE /D UNICODE /l"0x0409" /IDebug.win32\ /nologo /fo"DEBUG.WIN32\ALTERATION.RES" E:\PROGRAMS\COCOS2D\ALPHA_VER005\PROJ.WIN32\ALTERATION.RC
^E:\PROGRAMS\COCOS2D\ALPHA_VER006\PROJ.WIN32\ALTERATION.RC
/D _DEBUG /D _UNICODE /D UNICODE /l"0x0409" /IDebug.win32\ /nologo /fo"DEBUG.WIN32\ALTERATION.RES" ALTERATION.RC /D _DEBUG /D _UNICODE /D UNICODE /l"0x0409" /IDebug.win32\ /nologo /fo"DEBUG.WIN32\ALTERATION.RES" E:\PROGRAMS\COCOS2D\ALPHA_VER006\PROJ.WIN32\ALTERATION.RC
^E:\PROGRAMS\COCOS2D\ALPHA_VER010\PROJ.WIN32\ALTERATION.RC
/D _DEBUG /D _UNICODE /D UNICODE /l"0x0409" /IDebug.win32\ /nologo /fo"DEBUG.WIN32\ALTERATION.RES" ALTERATION.RC /D _DEBUG /D _UNICODE /D UNICODE /l"0x0409" /IDebug.win32\ /nologo /fo"DEBUG.WIN32\ALTERATION.RES" E:\PROGRAMS\COCOS2D\ALPHA_VER010\PROJ.WIN32\ALTERATION.RC
